../Core/Src/general.c:33:6:ToggleLed	0	static
../Core/Src/general.c:40:1:__io_putchar	16	static
../Core/Src/general.c:49:7:RemapADC	32	static
../Core/Src/general.c:55:6:ModuleSetSupply	16	static
../Core/Src/general.c:183:6:ModuleResetSupply	8	static
../Core/Src/general.c:84:6:ProcessADC	56	static
