../Core/Src/tcpServerRAW.c:354:13:tcp_server_acknowledge	16	static
../Core/Src/tcpServerRAW.c:467:13:tcp_server_send	16	static
../Core/Src/tcpServerRAW.c:340:13:tcp_server_error	0	static
../Core/Src/tcpServerRAW.c:528:13:tcp_server_handle	144	static
../Core/Src/tcpServerRAW.c:504:13:tcp_server_connection_close	16	static
../Core/Src/tcpServerRAW.c:184:14:tcp_server_accept	16	static
../Core/Src/tcpServerRAW.c:237:14:tcp_server_recv	24	static
../Core/Src/tcpServerRAW.c:393:14:tcp_server_poll	24	static
../Core/Src/tcpServerRAW.c:434:14:tcp_server_sent	16	static
../Core/Src/tcpServerRAW.c:147:6:tcp_server_init	16	static
